j_play
…
cleanest_primo <-primodata %>% 
  remove_empty(which = c("rows", "cols")) %>% 
  clean_names()

cleanest_primo <- cleanest_primo %>% 
  select(-six_to_twentyone_total, -x24)

cleanest_primo2 <- cleanest_primo [!(cleanest_primo$disability=="TOTAL (SUM OF ALL OF THE ABOVE)" |cleanest_primo$disability=="OTHER HEALTH IMPAIRMENT" | cleanest_primo$disability=="SPECIFIC LEARNING DISABILITY" | cleanest_primo$disability=="SPECIFIC LEARNING DISABILITY"),]
cleanest_primo2

## # A tibble: 198 x 18
##    year  disability    x6    x7    x8    x9   x10   x11   x12   x13   x14   x15
##    <chr> <chr>      <dbl> <dbl> <dbl> <dbl> <dbl> <dbl> <dbl> <dbl> <dbl> <dbl>
##  1 2002 INTELLECT   135   172   220   261   279   303   370   364   388   378
##  2 2002 HEARING I    46    66    69    67    79    78    69    70    53    72
##  3 2002 SPEECH OR  2502  2466  2443  2205  1894  1282   874   677   493   340
##  4 2002 VISUAL IM    18    27    25    16    12    26    19    24    31    19
##  5 2002 EMOTIONAL    81   178   241   292   347   433   504   487   549   548
##  6 2002 ORTHOPEDI    65    77    64    49    64    71    50    48    44    43
##  7 2002 DEAF-BLIN     0     2     0     0     1     0     2     0     4     2
##  8 2002 MULTIPLE      0     0     0     0     0     0     0     0     0     0
##  9 2002 AUTISM       267   289   290   334   325   316   290   256   243   219
## 10 2002 TRAUMATIC     6    11    17    23    22    19    21    23    36    36
## #  with 188 more rows, and 6 more variables: x16 <dbl>, x17 <dbl>, x18 <dbl>,
## #   x19 <dbl>, x20 <dbl>, x21 <dbl>

fresh_primo <- cleanest_primo2 %>% 
  pivot_longer(starts_with("x"), names_to = "age", values_to = "frequency") %>% 
  mutate(age = parse_number(age), 
         year = parse_number(year))

fresh_primo %>% 
  group_by(year, disability) %>% 
  summarize(total=sum(frequency, na.rm=TRUE))

## `summarise()` regrouping output by 'year' (override with `.groups` argument)

## # A tibble: 198 x 3
## # Groups:   year [18]
##     year disability                    total
##    <dbl> <chr>                         <dbl>
##  1  2002 AUTISM                         3339
##  2  2002 DEAF-BLINDNESS                   17
##  3  2002 DEVELOPMENTAL DELAY               0
##  4  2002 EMOTIONAL DISTURBANCE          4736
##  5  2002 HEARING IMPAIRMENT              873
##  6  2002 INTELLECTUAL DISABILITY        4387
##  7  2002 MULTIPLE DISABILITIES             0
##  8  2002 ORTHOPEDIC IMPAIRMENT           754
##  9  2002 SPEECH OR LANGUAGE IMPAIRMENT 15784
## 10  2002 TRAUMATIC BRAIN INJURY          306
## #  with 188 more rows
…
